-------------------------------------------------------------------------------
Test set: CategoryDaoTest
-------------------------------------------------------------------------------
Tests run: 9, Failures: 0, Errors: 0, Skipped: 3, Time elapsed: 4.206 sec
