-------------------------------------------------------------------------------
Test set: PostDaoTest
-------------------------------------------------------------------------------
Tests run: 15, Failures: 0, Errors: 0, Skipped: 9, Time elapsed: 3.214 sec
